[
          ["Week", "NetComp", "AnayzerHR", "QuestionRight"],
          ["Week48", 1, 9, 10],
          ["Week49", 2, 5, 5],
          ["Week50", 4, 9, 1],
          ["Week51", 1, 10, 4],
          ["Week52", 5, 7, 4]
        ]